Product Code,Product Name,Product Description,Stock,Cost in GBP,Discontinued
P0001,TV,32” Tv,10,399.99,
P00033,Misc Cables,Plays bluray's,32,999,yes
P0004,Bluray Player,Plays bluray's,32,1100.04,yes
P0011,Misc Cables,error in export